module github.com/weedydeeev/bot-api

go 1.17

require (
	github.com/gofiber/fiber/v2 v2.20.1
	github.com/imroc/req v0.3.0
	github.com/plivo/plivo-go v7.2.0+incompatible
)

require (
	github.com/andybalholm/brotli v1.0.2 // indirect
	github.com/klauspost/compress v1.13.4 // indirect
	github.com/stretchr/testify v1.7.0 // indirect
	github.com/valyala/bytebufferpool v1.0.0 // indirect
	github.com/valyala/fasthttp v1.29.0 // indirect
	github.com/valyala/tcplisten v1.0.0 // indirect
	golang.org/x/sys v0.0.0-20210514084401-e8d321eab015 // indirect
	golang.org/x/text v0.3.6 // indirect
)
